…
    ##     rempl       form
    ## 1 0.16663 0.05116366

On peut ventiler en fonction du journal :

``` r
df %>%
  mutate(remplacement = str_count(Texte, mots_remplacement),
         formation = str_count(Texte, mots_formation)) %>%
  group_by(Journal) %>%
  summarise(rempl = sum(remplacement),
            form = sum(formation))
```

    ## # A tibble: 243 × 3
    ##    Journal                                             rempl  form
    ##    <chr>                                               <int> <int>
    ##  1 "\n        Aujourd'hui en France                "     330    86
    ##  2 "\n        L'Humanité                    "            368    53
    ##  3 "\n        La Croix, no. 232                    "       0     0
    ##  4 "\n        La Croix, no. 42914                    "     0     0
    ##  5 "\n        La Croix, no. 42915                    "     2     0
    ##  6 "\n        La Croix, no. 42917                    "     0     0
    ##  7 "\n        La Croix, no. 42918                    "     0     0
    ##  8 "\n        La Croix, no. 42920                    "     2     1
    ##  9 "\n        La Croix, no. 42921                    "     1     3
    ## 10 "\n        La Croix, no. 42923                    "     1     0
    ## # ℹ 233 more rows
…
